build_id,node_number,svm_number,action,flash_pool_enable,disk_size_str,disk_type,disk_count,raid_size,raid_type
1,1,1,create,disable,1g,FCAL,8,16,raid_dp
1,2,1,create,disable,1g,FCAL,8,16,raid_dp
2,1,1,create,disable,600g,SAS,4,16,raid_dp
2,2,not_used,not_used,not_used,not_used,not_used,not_used,not_used,not_used
3,1,1,create,disable,450g,SAS,8,16,raid_dp
3,2,1,create,disable,450g,SAS,8,16,raid_dp
