build_id,wwn_nickname,hba_wwn,tgt_port,host_grp_name,host_grp_num,host_mode,host_mode_opt
5,host1_a,5001438003c07f1a,CL1-A,host1,1,VMWare,7;61
5,host1_b,5001438003c07f1b,CL2-A,host1,1,VMWare,7;61
5,host2_a,5001438003c07f2a,CL1-B,host2,1,WIN,7
5,host2_b,5001438003c07f2b,CL2-B,host2,1,WIN,7
