build_id,ucs_vnic_name,ucs_vlan_name
2,esxi-guest-a,214_anyconnect
2,esxi-guest-a,215_UC
2,esxi-guest-a,320_DMZ
2,esxi-guest-a,324_VDI
2,esxi-guest-b,214_anyconnect
2,esxi-guest-b,215_UC
2,esxi-guest-b,320_DMZ
2,esxi-guest-b,324_VDI
6,esxi-nas-a,333_NAS
6,esxi-nas-b,333_NAS
6,esxi-guest-a,360_Guest-Windows
6,esxi-guest-a,362_Guest-Other
6,esxi-guest-a,363_OS-Cluster
6,esxi-guest-b,360_Guest-Windows
6,esxi-guest-b,362_Guest-Other
6,esxi-guest-b,363_OS-Cluster
