build_id,ucs_vlan_name,ucs_vlan
1,,
2,210_PhyMgmt,210
2,211_VirtualMgmt,211
2,212_ISCSI,212
2,213_vmotion,213
2,214_anyconnect,214
2,215_UC,215
2,320_DMZ,320
2,322_Gen_App,322
2,324_VDI,324
3,312_Host-Management,312
3,330_vMotion,330
3,333_NAS,333
3,334_iSCSI-A,334
3,335_iSCSI-B,335
3,360_Guest-Windows,360
3,361_Guest-Linux,361
3,362_Guest-Other,362
3,363_OS-Cluster,363
