build_id,ucs_pool_type,ucs_pool_name,ucs_pool_fabric,ucs_pool_custom_postfix,ucs_mac_pool_prefix,ucs_mac_pool_mod_1,ucs_mac_pool_mod_2,ucs_mac_pool_mod_3,ucs_mac_pool_mod_4
1,,,,,esxi,SITE_NUMBER,DOMAIN_NUMBER,FABRIC_ID,1
1,,,,,generic,SITE_NUMBER,DOMAIN_NUMBER,FABRIC_ID,2
2,mac,Fabric-A,A,11:A0,esxi,SITE_NUMBER,DOMAIN_NUMBER,FABRIC_ID,1
2,mac,Fabric-B,B,11:B0,generic,SITE_NUMBER,DOMAIN_NUMBER,FABRIC_ID,2
2,wwpn,Fabric-A,A,11:A0,,,,,
2,wwpn,Fabric-B,B,11:B0,,,,,
3,mac,Fabric-A,A,31:A0,,,,,
3,mac,Fabric-B,B,31:B0,,,,,
3,wwpn,Fabric-A,A,31:A0,,,,,
3,wwpn,Fabric-B,B,31:B0,,,,,
